{
  "project_info": {
    "project_number": "576553361531",
    "firebase_url": "https://lotosuite-play.firebaseio.com",
    "project_id": "lotosuite-play",
    "storage_bucket": "lotosuite-play.appspot.com"
  },
  "client": [
    {
      "client_info": {
        "mobilesdk_app_id": "1:576553361531:android:d9a18a4cc7a304f5",
        "android_client_info": {
          "package_name": "com.lotosuiteplay.level"
        }
      },
      "oauth_client": [
        {
          "client_id": "576553361531-omp9igse7cbtu9pk77edflt6nbv8fu70.apps.googleusercontent.com",
          "client_type": 3
        }
      ],
      "api_key": [
        {
          "current_key": "AIzaSyAxgSX0jo_lqqueGFvw9ZRbmJxANh1ohqs"
        }
      ],
      "services": {
        "analytics_service": {
          "status": 1
        },
        "appinvite_service": {
          "status": 1,
          "other_platform_oauth_client": []
        },
        "ads_service": {
          "status": 2
        }
      }
    }
  ],
  "configuration_version": "1"
}